<?xml version="1.0" encoding="UTF-8" standalone="no"?>
<svg
   xmlns:dc="http://purl.org/dc/elements/1.1/"
   xmlns:cc="http://creativecommons.org/ns#"
   xmlns:rdf="http://www.w3.org/1999/02/22-rdf-syntax-ns#"
   xmlns:svg="http://www.w3.org/2000/svg"
   xmlns="http://www.w3.org/2000/svg"
   xmlns:sodipodi="http://sodipodi.sourceforge.net/DTD/sodipodi-0.dtd"
   xmlns:inkscape="http://www.inkscape.org/namespaces/inkscape"
   inkscape:version="1.0 (4035a4f, 2020-05-01)"
   sodipodi:docname="wave.svg"
   id="svg15"
   version="1.1"
   viewBox="0 0 1440 889"
   height="889px"
   width="1440px">
  <metadata
     id="metadata21">
    <rdf:RDF>
      <cc:Work
         rdf:about="">
        <dc:format>image/svg+xml</dc:format>
        <dc:type
           rdf:resource="http://purl.org/dc/dcmitype/StillImage" />
      </cc:Work>
    </rdf:RDF>
  </metadata>
  <defs
     id="defs19" />
  <sodipodi:namedview
     inkscape:current-layer="svg15"
     inkscape:window-maximized="1"
     inkscape:window-y="23"
     inkscape:window-x="33"
     inkscape:cy="1531.167"
     inkscape:cx="1714.5623"
     inkscape:zoom="0.12881944"
     showgrid="false"
     id="namedview17"
     inkscape:window-height="755"
     inkscape:window-width="1247"
     inkscape:pageshadow="2"
     inkscape:pageopacity="0"
     guidetolerance="10"
     gridtolerance="10"
     objecttolerance="10"
     borderopacity="1"
     bordercolor="#666666"
     pagecolor="#ffffff" />
  <g
     id="g13"
     fill-rule="evenodd"
     fill="none"
     stroke-width="1"
     stroke="none">
    <g
       id="g11"
       fill="#00D178"
       transform="translate(0.000000, -135.000000)">
      <path
         transform="translate(1153.766568, 1083.510705) scale(1, -1) rotate(36.000000) translate(-1153.766568, -1083.510705)"
         id="back"
         d="M242.915108,325.621102 L2072.75277,325.621102 L2078.70417,1579.86241 C2043.00895,1625.92863 1974.96682,1671.17467 1874.57778,1715.60054 C1725.54882,1781.55138 1538.96896,1718.58325 1339.48938,1678.47022 C1192.74555,1648.96174 929.62107,1648.96174 665.232046,1756.08022 C529.691637,1810.99507 384.223945,1839.4351 228.828969,1841.40031 L242.915108,325.621102 Z" />
    </g>
  </g>
  <path
     id="path25"
     d="M 436.28349,1514.0434 C 201.75344,1197.6004 0.00791047,925.38043 -12.039924,909.10998 L -33.945079,879.52734 15.129887,847.94383 C 84.562967,803.25826 208.64255,744.40987 281.56334,721.57989 509.45139,650.23288 558.58118,632.6404 629.57613,596.96288 799.16797,511.73688 840.32852,477.35686 1119.9461,187.3732 1254.0751,48.27179 1301.9404,22.484437 1465.0703,1.4384142 c 32.1979,-4.1539723 76.8726,-5.3209918 99.2771,-2.5933756 l 40.7355,4.9593026 365.5562,508.1801188 c 201.0559,279.4991 364.3745,509.22624 362.9302,510.50484 -5.1171,4.5302 -1455.62612,1057.4851 -1463.18561,1062.1572 -4.22506,2.6112 -199.57016,-254.1602 -434.1002,-570.6031 z"
     style="fill:#80e5ff;stroke-width:7.7628" />
  <path
     id="path27"
     d=""
     style="fill:#80e5ff;stroke-width:2.74457" />
  <path
     id="path29"
     d="m 1004.9272,303.61398 c 0.9995,-2.69968 83.93,-95.19667 109.9132,-122.59226 95.7989,-101.006513 171.3594,-150.166904 259.0998,-168.572828 37.348,-7.834767 96.8133,-16.6853357 112.1054,-16.6853357 9.9021,0 6.5916,2.3067415 -4.7243,3.29190971 -16.0621,1.39838064 -65.3846,8.63629449 -85.8376,12.59639199 -93.4123,18.086465 -146.1336,47.427035 -227.8958,126.829102 -9.7149,9.43444 -36.5643,36.60564 -59.6654,60.38044 -77.6671,79.93216 -103.5536,106.26024 -102.9953,104.75258 z"
     style="fill:#80e5ff;stroke-width:1.37228" />
  <path
     id="path31"
     d="m 549.88441,630.41826 c 2.26427,-1.04992 16.77616,-7.57785 32.24865,-14.50652 75.33017,-33.73331 158.61366,-81.299 219.35021,-125.27745 7.05191,-5.10619 13.10181,-9.00383 13.44422,-8.66142 0.85835,0.85835 -18.56838,15.84407 -39.98871,30.84716 -36.95838,25.88615 -76.31838,48.46186 -140.65898,80.67774 -36.32097,18.18622 -83.04655,39.12045 -86.8639,38.9172 -0.90658,-0.0483 0.20425,-0.94679 2.46851,-1.99671 z"
     style="fill:#80e5ff;stroke-width:1.37228" />
  <path
     id="path33"
     d="m 31.275379,973.85805 c -38.1682129,-51.51206 -69.400654,-94.02457 -69.405427,-94.47225 -0.0048,-0.44766 9.099849,-6.99679 20.232492,-14.55358 C 88.849266,792.37289 202.08743,738.45464 318.65478,704.58314 c 31.89168,-9.26691 68.52794,-18.82121 70.11011,-18.28388 0.66179,0.22475 -19.31932,6.85268 -44.40248,14.72874 -88.09567,27.66185 -110.29145,35.66912 -160.25467,57.81295 -52.70566,23.35928 -111.811304,53.53263 -149.813435,76.47955 -25.8933666,15.63525 -68.316183,43.18128 -68.316183,44.35912 0,0.60978 31.1552858,43.12249 69.233967,94.4727 38.078682,51.35018 68.384831,93.36398 67.347001,93.36398 -1.03783,0 -33.1155,-42.1462 -71.283711,-93.65825 z"
     style="fill:#80e5ff;stroke-width:1.37228" />
  <path
     id="path35"
     d=""
     style="fill:#80e5ff;stroke-width:1.9407" />
  <path
     id="path37"
     d="M 2032.1399,596.66622 C 2004.8245,558.60552 1897.9734,410.00404 1794.6929,266.4407 1661.8132,81.733425 1607.3577,5.3178911 1608.4407,5.0793724 c 0.8417,-0.1853882 2.2953,0.4695984 3.2301,1.4555257 0.9348,0.9859272 106.4118,147.4179319 234.3934,325.4044519 127.9816,177.98653 233.5235,324.74912 234.5376,326.13911 1.0507,1.44022 1.7059,3.65885 1.5232,5.15813 -0.2694,2.21006 -8.2647,-8.43815 -49.9851,-66.57037 z"
     style="fill:#80e5ff;stroke-width:0.97035" />
  <path
     id="path39"
     d="m 898.47744,427.68173 0.0155,-16.25337 23.83863,-22.80323 c 28.88804,-27.63334 79.10853,-78.25661 141.52803,-142.663 105.2783,-108.62936 134.4337,-136.75655 169.3733,-163.399951 57.2184,-43.63232 108.3184,-62.860616 203.7735,-76.6774767 44.9015,-6.4993601 79.4819,-9.0439181 106.7386,-7.8542258 19.9928,0.87264 59.9607,5.6990224 61.6199,7.4409943 0.6919,0.7264257 27.633,38.0000192 59.8692,82.8302082 32.2362,44.830191 102.8002,142.943521 156.809,218.029631 54.0089,75.08611 98.1978,136.76401 98.1978,137.062 0,0.29798 -229.9002,0.54179 -510.8895,0.54179 H 898.46196 Z"
     style="fill:#80e5ff;stroke-width:0.97035" />
  <path
     id="path41"
     d=""
     style="fill:#80e5ff;stroke-width:0.97035" />
  <path
     id="path43"
     d="m 898.47664,427.68173 0.0147,-16.25337 30.20736,-29.11051 c 30.40343,-29.29946 84.0655,-83.60678 165.8891,-167.88381 51.5868,-53.13359 88.3832,-89.59882 106.1383,-105.18294 73.2514,-64.294763 126.5097,-87.56411 236.7655,-103.4463067 64.6822,-9.3173795 98.5449,-10.2167388 148.4539,-3.9427827 l 18.4269,2.3164105 2.4356,3.1430868 c 1.3396,1.7286976 64.3483,89.2116821 140.0193,194.4066421 75.6711,105.19496 145.6455,202.4684 155.4986,216.1632 9.8533,13.69481 17.915,25.15708 17.915,25.4717 0,0.31463 -229.9002,0.57205 -510.8895,0.57205 H 898.46196 Z"
     style="fill:#80e5ff;stroke-width:0.97035" />
  <path
     id="path45"
     d="m 898.46196,427.59952 v -16.33556 l 15.25845,-14.47306 c 25.10662,-23.8143 89.72009,-88.70493 143.88269,-144.5 113.3811,-116.79821 134.5824,-137.44846 169.3225,-164.921531 37.3649,-29.548875 73.5281,-48.977657 114.5013,-61.516265 54.378,-16.6407102 150.9948,-30.0409256 201.3477,-27.9258112 14.501,0.6091235 57.1349,5.1687927 60.7335,6.4954071 1.115,0.4110361 5.7285,5.9155691 10.2523,12.2322961 4.5237,6.316727 72.7741,101.218114 151.6675,210.891964 78.8933,109.67386 146.0008,202.96823 149.1278,207.32084 3.1268,4.3526 5.6852,8.17336 5.6852,8.49056 0,0.31721 -229.9002,0.57674 -510.8895,0.57674 H 898.46196 Z"
     style="fill:#80e5ff;stroke-width:0.97035" />
  <path
     id="path47"
     d=""
     style="fill:#80e5ff;stroke-width:0.97035" />
  <path
     id="path49"
     d="m 1606.2547,4.6976551 c -0.6331,-0.9776134 -7.8026,-2.2468172 -24.6661,-4.36653584 -21.089,-2.65088146 -26.732,-2.99512006 -49.973,-3.04851716 -14.4097,-0.033107 -29.6927,0.2274809 -33.9623,0.5790839 -4.2695,0.3516029 -7.2169,0.3943041 -6.5498,0.094891 1.7449,-0.7831424 1.4926,-2.1175692 -0.4852,-2.5665291 -0.934,-0.2120069 6.1617,-0.7419601 15.7682,-1.1776738 30.9473,-1.4036566 62.5597,0.5543691 85.876,5.31904221 13.6115,2.78150429 17.5516,4.11541089 16.0894,5.44711399 -0.9042,0.8236121 -1.4274,0.7535499 -2.0972,-0.2808752 z"
     style="fill:#80e5ff;stroke-width:0.97035" />
  <path
     id="path51"
     d=""
     style="fill:#80e5ff;stroke-width:0.97035" />
  <path
     id="path53"
     d=""
     style="fill:#80e5ff;stroke-width:0.97035" />
  <path
     id="path57"
     d=""
     style="fill:#80e5ff;stroke-width:0.97035" />
  <path
     id="path59"
     d="m 1670.5421,1507.1903 v -2.4441 l 85.7548,-62.2627 c 122.8162,-89.1713 357.5026,-259.6499 399.5971,-290.2714 l 35.837,-26.0695 3.0366,0.1422 3.0365,0.1422 -263.383,191.3558 c -144.8607,105.2457 -263.4947,191.4674 -263.631,191.6038 -0.1364,0.1363 -0.248,-0.852 -0.248,-2.1963 z"
     style="fill:#80e5ff;stroke-width:0.485175" />
  <path
     id="path61"
     d="m 825.46857,2046.7535 -36.72431,-49.5602 v -6.801 c 0,-3.7406 0.0773,-6.7101 0.17189,-6.599 0.0945,0.1112 6.5791,8.4987 14.41014,18.6389 41.939,54.3055 64.62166,82.2372 66.78285,82.2372 0.39671,0 2.61107,-1.3558 4.92079,-3.0128 26.26537,-18.8433 166.42047,-120.4053 362.88007,-262.9574 78.2608,-56.7865 142.4063,-103.2482 142.5455,-103.2482 0.1393,0 0.1872,1.09 0.1066,2.4222 l -0.1467,2.4222 -258.7768,188.0091 c -142.32731,103.405 -258.92738,188.0091 -259.11131,188.0091 -0.18393,0 -16.86036,-22.3021 -37.05872,-49.5601 z"
     style="fill:#80e5ff;stroke-width:0.485175" />
  <path
     id="path63"
     d="m 682.1775,1853.3978 c -58.43935,-78.887 -106.42796,-143.7253 -106.64135,-144.0851 -0.30746,-0.5183 0.20012,-0.6541 2.44521,-0.6541 h 2.83321 l 33.76302,45 c 64.15828,85.5114 126.56057,167.9483 164.80581,217.7178 l 9.29006,12.0894 v 6.6934 c 0,3.6814 -0.0546,6.6881 -0.12129,6.6815 -0.0667,-0.01 -47.93531,-64.5559 -106.37467,-143.4429 z"
     style="fill:#80e5ff;stroke-width:0.485175" />
  <path
     id="path65"
     d="m 428.21067,1509.657 c -80.64289,-108.8166 -147.43035,-198.9756 -148.41659,-200.3532 -1.48559,-2.0753 -1.47386,-2.5049 0.0684,-2.5049 1.02388,0 34.23671,43.69 73.80629,97.089 39.56957,53.3989 105.96333,142.8149 147.54167,198.7021 41.57834,55.8872 76.0562,102.3561 76.61746,103.2642 0.61759,0.9993 0.22801,1.6512 -0.98667,1.6512 -1.10394,0 -67.98771,-89.0317 -148.63059,-197.8484 z"
     style="fill:#80e5ff;stroke-width:1.37228" />
  <path
     id="path67"
     d="m 189.13712,1187.3564 c -48.50973,-65.4676 -88.31387,-119.3012 -88.45365,-119.6303 -0.13977,-0.3292 0.63927,-0.5984 1.73121,-0.5984 1.51003,0 23.11819,28.5152 90.25414,119.1041 48.54784,65.5072 88.26879,119.3409 88.26879,119.6303 0,0.2894 -0.81022,0.5262 -1.80048,0.5262 -1.26463,0 -28.05034,-35.4261 -90.00001,-119.0319 z"
     style="fill:#80e5ff;stroke-width:0.97035" />
  <path
     id="path69"
     d=""
     style="fill:#80e5ff;stroke-width:0.97035" />
  <path
     id="path71"
     d=""
     style="fill:#80e5ff;stroke-width:0.97035" />
  <path
     id="path75"
     d="m 2198.9067,1121.5696 c 108.5377,-78.98 134.4879,-98.0432 134.8612,-99.0703 0.7718,-2.1231 -35.9768,-54.48304 -168.4361,-239.99058 -44.9733,-62.98446 -82.2404,-115.27873 -82.8158,-116.20947 -0.5754,-0.93074 -0.4949,-2.03297 0.1789,-2.4494 1.2897,-0.7971 257.0561,353.78045 257.3271,356.74125 0.1969,2.1509 -141.0688,104.9199 -144.2223,104.9199 -1.4432,0 -0.2778,-1.4783 3.107,-3.9414 z"
     style="fill:#80e5ff;stroke-width:1.37228" />
  <path
     id="path77"
     d=""
     style="fill:#80e5ff;stroke-width:1.37228" />
  <path
     id="path79"
     d=""
     style="fill:#80e5ff;stroke-width:1.37228" />
  <path
     id="path81"
     d="m 1381.7837,1716.4054 c 0,-0.7657 6.3297,-6.0096 14.0659,-11.6532 115.5937,-84.3258 273.3696,-198.1153 273.9265,-197.5584 0.3964,0.3964 -0.4801,1.8548 -1.9477,3.241 -3.0376,2.8691 -284.5387,207.3627 -285.4506,207.3627 -0.3268,0 -0.5941,-0.6265 -0.5941,-1.3921 z"
     style="fill:#80e5ff;stroke-width:1.37228" />
</svg>
