<svg width="66" height="66" xmlns="http://www.w3.org/2000/svg">

 <g>
  <title>background</title>
  <rect fill="none" id="canvas_background" height="402" width="582" y="-1" x="-1"/>
 </g>
 <g>
  <title>Layer 1</title>
  <path fill="#1da1f2" id="XMLID_554_" d="m61.200001,34.200001c-0.5,2 -1.299999,4.099998 -2.400002,6.200001c-7,13.399998 -19.299999,19.199997 -34.299999,19.599998c3.1,-3.799999 4.4,-7.599998 5.5,-10.700001c4.400002,-12.099998 16.799999,-19.4 31.200001,-15.099998z"/>
  <path fill="#1da1f2" id="XMLID_556_" d="m61.299999,19c1.200001,1.200001 1.5,3.1 0.700001,4.5c-0.200001,-0.200001 -0.200001,-0.200001 -0.299999,-0.299999l0,0c-0.200001,-0.200001 -1.799999,-1.900002 -14.299999,-14.400001c1.5,-0.8 3.299999,-0.5 4.5,0.7l9.399998,9.5z"/>
  <path fill="#1da1f2" id="XMLID_557_" d="m61.900002,12.5c1.199997,1.2 1.5,3.1 0.699997,4.5l-8.699997,-8.7c1.5,-0.8 3.299999,-0.5 4.5,0.7l3.5,3.5z"/>
  <path fill="#1da1f2" id="XMLID_550_" d="m61.099998,25.9c0.700001,1.6 0.800003,3.700001 0.5,6c-15.299999,-4.4 -29,3.4 -33.699999,16.500002c-1.199999,3.599998 -2.699999,7.599998 -6.4,11.599998c-8.4,-0.200001 -15.3,-2.299999 -19.7,-4c-1,-0.400002 -1.1,-1.700001 -0.2,-2.200001c12,-7.599998 16.699999,-24.099998 16.9,-24.799999c5,-17.2 16.299999,-22.2 26.5,-19.2l16.099998,16.099999z"/>
  <path fill="#1da1f2" id="XMLID_551_" d="m64.699997,8.1c-0.599998,0.7 -1.199997,1.5 -1.599998,2.4l-3.099998,-3c1.200001,-0.9 2.5,-1.3 3.5,-1.4c1.199997,-0.2 2,1.1 1.199997,2z"/>
 </g>
</svg>